{
  "kind": {
    "keycloak_url": "http://localhost:9090/auth",
    "redirect_uri": "http://localhost:9090/",
    "realm": "biletado",
    "client_id": "angular",
    "username": "biletado",
    "password": "",
    "host": "http://localhost:9090",
    "api-jwt-v2": "/api/v2/jwt",
    "assets-api-v2": "/api/v2/assets",
    "assets-api-v3": "/api/v3/assets"
  }
}
